sim/decoder/bl_mask_3.vcd
$date
	Fri Oct 30 22:28:13 2020
$end
$version
	Icarus Verilog
$end
$timescale
	1ns
$end
$scope module bl_mask_tb_3 $end
$var wire 32 ! bl_mask [31:0] $end
$var reg 2 " addr [1:0] $end
$var reg 2 # conf [1:0] $end
$scope module bl_mask_3 $end
$var wire 2 $ addr [1:0] $end
$var wire 1 % addr0_b $end
$var wire 1 & addr1_b $end
$var wire 1 ' c16_b $end
$var wire 1 ( c16_h1_en $end
$var wire 1 ) c16_h2_en $end
$var wire 1 * c32 $end
$var wire 1 + c8_b $end
$var wire 1 , c8_q1_en $end
$var wire 1 - c8_q2_en $end
$var wire 1 . c8_q3_en $end
$var wire 1 / c8_q4_en $end
$var wire 2 0 conf [1:0] $end
$var wire 1 1 conf0_b $end
$var wire 1 2 conf1_b $end
$var wire 1 3 q1_en_b $end
$var wire 1 4 q2_en_b $end
$var wire 1 5 q3_en_b $end
$var wire 1 6 q4_en_b $end
$var wire 32 7 bl_mask [31:0] $end
$upscope $end
$upscope $end
$enddefinitions $end
#0
$dumpvars
bx 7
x6
x5
x4
x3
x2
x1
bx 0
x/
x.
x-
x,
x+
x*
x)
x(
x'
x&
x%
bx $
bx #
bx "
bx !
$end
#5
03
04
05
b0 !
b0 7
06
0)
0/
1%
1&
0(
0,
0-
0.
11
12
1*
1'
1+
b0 "
b0 $
b0 #
b0 0
#15
15
b11111111111111110000000000000000 !
b11111111111111110000000000000000 7
16
1(
01
0*
0'
b1 #
b1 0
#25
05
06
1)
13
b1111111111111111 !
b1111111111111111 7
14
0%
0(
b1 "
b1 $
#35
03
1,
15
b11111111111111111111111100000000 !
b11111111111111111111111100000000 7
16
0+
0)
1%
11
02
1'
b0 "
b0 $
b10 #
b10 0
#45
04
1-
b11111111111111110000000011111111 !
b11111111111111110000000011111111 7
13
0%
0,
b1 "
b1 $
#55
05
1.
b11111111000000001111111111111111 !
b11111111000000001111111111111111 7
14
1%
0&
0-
b10 "
b10 $
#65
06
1/
b111111111111111111111111 !
b111111111111111111111111 7
15
0%
0.
b11 "
b11 $
